{
  "slideshow": [
    {
      "image": "https://scontent.fpen1-1.fna.fbcdn.net/v/t1.0-9/57649271_396983737552637_3591075031527981056_o.jpg?_nc_cat=106&_nc_sid=730e14&_nc_ohc=P1D6Sbh6kGcAX9V8ig3&_nc_ht=scontent.fpen1-1.fna&oh=31acca787eb9eacd9548eaaa5bba3735&oe=5EF2A423",
      "description": "",
      "url": "https://www.facebook.com/Interpure2006/photos/a.396983807552630/396983734219304/?type=3&theater"
    },
    {
      "image": "https://scontent.fpen1-1.fna.fbcdn.net/v/t1.0-9/94076034_627548727829469_5493619494955778048_o.jpg?_nc_cat=100&_nc_sid=8bfeb9&_nc_ohc=ymxiMlK_qBQAX-_avn8&_nc_ht=scontent.fpen1-1.fna&oh=b6ff6ae07cb69d3e38e57ccc96fd24d3&oe=5EF2850B",
      "description": "",
      "url": "https://www.facebook.com/Interpure2006/photos/pcb.627542761163399/627548724496136/?type=3&theater"
    },
    {
      "image": "https://media.karousell.com/media/photos/products/2016/01/07/cuckoo_water_purifier_1452175971_398e801c.jpg",
      "description": "",
      "url": "https://store.cuckoo.com.my/estore/INTERPURE/"
    },
    {
        "image": "https://scontent.fpen1-1.fna.fbcdn.net/v/t1.0-9/67907400_458177278099949_3503227011701145600_n.jpg?_nc_cat=108&_nc_sid=8bfeb9&_nc_ohc=6won-jhNJ2YAX-gGRUL&_nc_ht=scontent.fpen1-1.fna&oh=72c7ec4f2dae3aace889f72a8a753066&oe=5EF21F41",
        "description": "",
        "url": "https://www.facebook.com/Interpure2006/photos/pcb.458177301433280/458177268099950/?type=3&theater"
    },
    {
        "image": "https://scontent.fpen1-1.fna.fbcdn.net/v/t1.0-9/94632406_627576621160013_6967930301355917312_o.jpg?_nc_cat=106&_nc_sid=8bfeb9&_nc_ohc=TRyLfY46hvQAX-Z9SAy&_nc_ht=scontent.fpen1-1.fna&oh=24ca65e801a0dc3b46bffd0b1e670471&oe=5EF110B5",
        "description": "",
        "url": "https://www.facebook.com/Interpure2006/photos/a.375055433078801/627576617826680/?type=3&av=348162579101420&eav=Afa4tLRT-7l0FAtmiw2qft0Pj3Le-j9w0c8s8bsBZMAQzsWWlcFCSdXRiHvd2u3QF_A&theater"
    }
  ]
}